<?xml version="1.0" encoding="UTF-8"?>
<svg width="128px" height="128px" viewBox="0 0 128 128" version="1.1" xmlns="http://www.w3.org/2000/svg" xmlns:xlink="http://www.w3.org/1999/xlink">
    <!-- Generator: Sketch 52.6 (67491) - http://www.bohemiancoding.com/sketch -->
    <title>arrow-o-ud</title>
    <desc>Created with Sketch.</desc>
    <g id="arrow-o-ud" stroke="none" stroke-width="1" fill="none" fill-rule="evenodd">
        <g id="Group" transform="translate(32.000000, 13.000000)" fill="#000000" fill-rule="nonzero">
            <path d="M60.3178942,-1.10134124e-13 C64.5904784,1.04862665 64.986025,3.71868539 61.504534,8.01017623 L34.8797248,35.5489215 C33.0512634,37.4401476 30.1401526,37.4160503 28.3393723,35.4947824 L1.67278667,7.04397409 C-0.928440937,3.39592341 -0.495935142,1.04793205 2.97030406,-1.10134124e-13 L60.3178942,-1.10134124e-13 Z" id="Path-Copy" transform="translate(31.924629, 18.475844) rotate(-180.000000) translate(-31.924629, -18.475844) "></path>
            <path d="M60.3178942,66 C64.5904784,67.0202483 64.986025,69.618049 61.504534,73.7934019 L34.8797248,100.586884 C33.0512634,102.426929 30.1401526,102.403484 28.3393723,100.53421 L1.67278667,72.8533475 C-0.928440937,69.3040217 -0.495935142,67.0195725 2.97030406,66 L60.3178942,66 Z" id="Path-Copy-2" transform="translate(31.924629, 83.975844) rotate(-360.000000) translate(-31.924629, -83.975844) "></path>
        </g>
    </g>
</svg>